5 Exercise: ETL
…
Figure 5.1: ETL Workflow

A common data science workflow entails Extracting data, Transforming it, and then Loading (ETL) it to a location to be shared with others or consumed by other content. In this exercise, you will get practice creating an ETL workflow within Posit Team. You will also leverage the job scheduling feature in Posit Connect to ensure the data remains updated automatically.

The data for this exercise is “real” data regarding cases of COVID19 in the United States from 2020 to 2023. While this is a relatively small dataset, the ETL workflow (as shown in Figure fig-etl-workflow) is designed to work with data of all sizes! Here is a preview of the COVID dataset with an explanation of the various columns:

# A tibble: 66,100 × 4
   province_state date       state_count new_cases
   <chr>          <date>           <dbl>     <dbl>
 1 Alabama        2020-01-23           0         0
 2 Alabama        2020-01-24           0         0
 3 Alabama        2020-01-25           0         0
 4 Alabama        2020-01-26           0         0
 5 Alabama        2020-01-27           0         0
 6 Alabama        2020-01-28           0         0
 7 Alabama        2020-01-29           0         0
 8 Alabama        2020-01-30           0         0
 9 Alabama        2020-01-31           0         0
10 Alabama        2020-02-01           0         0
# ℹ 66,090 more rows
…
